^J:\PROJECT\UNREAL4\HOMEWORK18\X64\DEBUG\SOURCE.OBJ
J:\PROJECT\UNREAL4\HOMEWORK18\X64\DEBUG\HOMEWORK18.EXE
J:\PROJECT\UNREAL4\HOMEWORK18\X64\DEBUG\HOMEWORK18.ILK
J:\PROJECT\UNREAL4\HOMEWORK18\X64\DEBUG\HOMEWORK18.PDB
